Choose priors • clonewars
…
If we look at the deterministic portion of our model…

\[
X_{t+1} = X_t + r \left( 1 - \alpha ~ \text{e}^{X_t} \right)
\] … \(X_{t+1} = X_t\) when \(\alpha = 1 / \exp(X_t) = 1 / N_t\). Because each repetition is run until the plant dies and populations crash, I’ll assume that for each repetition, our estimate of \(\alpha\) is \(1 / \max(N_t)\).

Here is how I coded it:

prior_df <- load_prior_data() %>% 
    group_by(line, rep) %>% 
    summarize(alpha = 1 / max(N)) %>% 
    ungroup()
prior_df
#> # A tibble: 8 x 3
#>   line         rep   alpha
#>   <fct>      <int>   <dbl>
#> 1 G15            1 0.00205
#> 2 G15            2 0.00190
#> 3 WI-4122-52     1 0.00260
#> 4 WI-4122-52     2 0.00142
#> # ... with 4 more rows
…
