Estimating aphid population parameters • clonewars
…
                        Lucas A. Nell

            2018-07-03

      Source: vignettes/estimate_pars.Rmd
      estimate_pars.Rmd

This file will eventually contain the analyses to estimate aphid population-growth parameters. It is not yet finished, and much of the code below is not run during the making of this document.

Load data

growth <- load_data()
growth
#> # A tibble: 327 x 8
#>   line            rep  date     N  disp     X   ham     r
#>   <fct>         <int> <int> <int> <int> <dbl> <dbl> <dbl>
#> 1 Clover-2017-2     2     4    31     0  3.43     1 1.04 
#> 2 Clover-2017-2     2     5    38     0  3.64     1 0.204
#> 3 Clover-2017-2     2     6    44     0  3.78     1 0.147
#> 4 Clover-2017-2     2     7    56     0  4.03     1 0.241
#> # ... with 323 more rows
…
